module main

go 1.16

require (
	github.com/gorilla/mux v1.8.0 // indirect
	github.com/jackc/pgx/v4 v4.13.0 // indirect
	github.com/jinzhu/gorm v1.9.16 // indirect
	github.com/lib/pq v1.10.2 // indirect
	github.com/rs/cors v1.8.0 // indirect
)
